<?xml version="1.0" encoding="UTF-8"?>
<robot generator="Robot 3.1.2 (Python 3.7.4 on win32)" generated="20191208 02:03:34.019" rpa="false">
<suite id="s1" name="checkChart" source="C:\development\hiring-chanallange\tests\checkChart.robot">
<test id="s1-t1" name="Go to website and add products to chart">
<kw name="Begin Web Test" library="CommonWeb" type="setup">
<kw name="Open Browser" library="SeleniumLibrary">
<doc>Opens a new browser instance to the given ``url``.</doc>
<arguments>
<arg>about:blank</arg>
<arg>${BROWSER}</arg>
</arguments>
<msg timestamp="20191208 02:03:34.309" level="INFO">Opening browser 'chrome' to base url 'about:blank'.</msg>
<status status="PASS" starttime="20191208 02:03:34.308" endtime="20191208 02:03:39.861"></status>
</kw>
<kw name="Maximize Browser Window" library="SeleniumLibrary">
<doc>Maximizes current browser window.</doc>
<status status="PASS" starttime="20191208 02:03:39.862" endtime="20191208 02:03:44.052"></status>
</kw>
<status status="PASS" starttime="20191208 02:03:34.308" endtime="20191208 02:03:44.052"></status>
</kw>
<kw name="Given CheckChartApp.Go to Main Page" library="CheckChartApp">
<kw name="Navigate to Main Page" library="main">
<kw name="Go To" library="SeleniumLibrary">
<doc>Navigates the active browser instance to the provided ``url``.</doc>
<arguments>
<arg>${URL}</arg>
</arguments>
<msg timestamp="20191208 02:03:44.055" level="INFO">Opening url 'https://www.hepsiburada.com/'</msg>
<status status="PASS" starttime="20191208 02:03:44.055" endtime="20191208 02:03:49.664"></status>
</kw>
<kw name="Sleep" library="BuiltIn">
<doc>Pauses the test executed for the given time.</doc>
<arguments>
<arg>4s</arg>
</arguments>
<msg timestamp="20191208 02:03:53.666" level="INFO">Slept 4 seconds</msg>
<status status="PASS" starttime="20191208 02:03:49.664" endtime="20191208 02:03:53.666"></status>
</kw>
<status status="PASS" starttime="20191208 02:03:44.054" endtime="20191208 02:03:53.666"></status>
</kw>
<kw name="Verify Page Loaded" library="main">
<kw name="Wait Until Page Contains Element" library="SeleniumLibrary">
<doc>Waits until element ``locator`` appears on current page.</doc>
<arguments>
<arg>${DEALS}</arg>
</arguments>
<status status="PASS" starttime="20191208 02:03:53.667" endtime="20191208 02:03:53.774"></status>
</kw>
<kw name="Sleep" library="BuiltIn">
<doc>Pauses the test executed for the given time.</doc>
<arguments>
<arg>3s</arg>
</arguments>
<msg timestamp="20191208 02:03:56.776" level="INFO">Slept 3 seconds</msg>
<status status="PASS" starttime="20191208 02:03:53.774" endtime="20191208 02:03:56.776"></status>
</kw>
<status status="PASS" starttime="20191208 02:03:53.667" endtime="20191208 02:03:56.777"></status>
</kw>
<kw name="Add Product to Chart" library="main">
<kw name="Mouse Over" library="SeleniumLibrary">
<doc>Simulates hovering mouse over the element ``locator``.</doc>
<arguments>
<arg>${DEALS}</arg>
</arguments>
<msg timestamp="20191208 02:03:56.779" level="INFO">Simulating Mouse Over on element '//*[@id="dealoftheday_5"]/div/div/div[2]/div/div/div/div/div[2]/div'.</msg>
<status status="PASS" starttime="20191208 02:03:56.778" endtime="20191208 02:03:57.165"></status>
</kw>
<kw name="Sleep" library="BuiltIn">
<doc>Pauses the test executed for the given time.</doc>
<arguments>
<arg>3s</arg>
</arguments>
<msg timestamp="20191208 02:04:00.167" level="INFO">Slept 3 seconds</msg>
<status status="PASS" starttime="20191208 02:03:57.165" endtime="20191208 02:04:00.167"></status>
</kw>
<kw name="Click Element" library="SeleniumLibrary">
<doc>Click element identified by ``locator``.</doc>
<arguments>
<arg>${PRODUCT_URL1}</arg>
</arguments>
<msg timestamp="20191208 02:04:00.169" level="INFO">Clicking element '//*[@id="dealoftheday_5"]/div/div/div[2]/div/div/div/div/div[2]/div/div/a/div[4]/button/span'.</msg>
<status status="PASS" starttime="20191208 02:04:00.168" endtime="20191208 02:04:00.299"></status>
</kw>
<kw name="Sleep" library="BuiltIn">
<doc>Pauses the test executed for the given time.</doc>
<arguments>
<arg>3s</arg>
</arguments>
<msg timestamp="20191208 02:04:03.301" level="INFO">Slept 3 seconds</msg>
<status status="PASS" starttime="20191208 02:04:00.299" endtime="20191208 02:04:03.301"></status>
</kw>
<status status="PASS" starttime="20191208 02:03:56.777" endtime="20191208 02:04:03.301"></status>
</kw>
<status status="PASS" starttime="20191208 02:03:44.054" endtime="20191208 02:04:03.301"></status>
</kw>
<kw name="And sleep" library="BuiltIn">
<doc>Pauses the test executed for the given time.</doc>
<arguments>
<arg>3s</arg>
</arguments>
<msg timestamp="20191208 02:04:06.303" level="INFO">Slept 3 seconds</msg>
<status status="PASS" starttime="20191208 02:04:03.302" endtime="20191208 02:04:06.303"></status>
</kw>
<kw name="When CheckChartApp.Go to Checkout Page" library="CheckChartApp">
<kw name="Navigate to Checkout Page" library="checkout">
<kw name="Go To" library="SeleniumLibrary">
<doc>Navigates the active browser instance to the provided ``url``.</doc>
<arguments>
<arg>${CHECKOUT_URL}</arg>
</arguments>
<msg timestamp="20191208 02:04:06.309" level="INFO">Opening url 'https://www.hepsiburada.com/ayagina-gelsin/sepetim'</msg>
<status status="PASS" starttime="20191208 02:04:06.308" endtime="20191208 02:04:09.226"></status>
</kw>
<kw name="Sleep" library="BuiltIn">
<doc>Pauses the test executed for the given time.</doc>
<arguments>
<arg>4s</arg>
</arguments>
<msg timestamp="20191208 02:04:13.227" level="INFO">Slept 4 seconds</msg>
<status status="PASS" starttime="20191208 02:04:09.226" endtime="20191208 02:04:13.227"></status>
</kw>
<status status="PASS" starttime="20191208 02:04:06.307" endtime="20191208 02:04:13.228"></status>
</kw>
<kw name="Get Total Amount" library="checkout">
<kw name="Log To Console" library="BuiltIn">
<doc>Logs the given message to the console.</doc>
<arguments>
<arg>${element}</arg>
</arguments>
<status status="PASS" starttime="20191208 02:04:13.229" endtime="20191208 02:04:13.231"></status>
</kw>
<status status="PASS" starttime="20191208 02:04:13.228" endtime="20191208 02:04:13.231"></status>
</kw>
<status status="PASS" starttime="20191208 02:04:06.306" endtime="20191208 02:04:13.231"></status>
</kw>
<kw name="End Web Test" library="CommonWeb" type="teardown">
<kw name="Close All Browsers" library="SeleniumLibrary">
<doc>Closes all open browsers and resets the browser cache.</doc>
<status status="PASS" starttime="20191208 02:04:13.235" endtime="20191208 02:04:15.635"></status>
</kw>
<status status="PASS" starttime="20191208 02:04:13.233" endtime="20191208 02:04:15.636"></status>
</kw>
<doc>This case tests the free shipping eligibility</doc>
<tags>
<tag>smoke</tag>
</tags>
<status status="PASS" starttime="20191208 02:03:34.307" endtime="20191208 02:04:15.637" critical="yes"></status>
</test>
<doc>This test suite, adds products from "Günün Fırsatları" and calculates the amount left for free shipping</doc>
<status status="PASS" starttime="20191208 02:03:34.022" endtime="20191208 02:04:15.641"></status>
</suite>
<statistics>
<total>
<stat pass="1" fail="0">Critical Tests</stat>
<stat pass="1" fail="0">All Tests</stat>
</total>
<tag>
<stat pass="1" fail="0">smoke</stat>
</tag>
<suite>
<stat pass="1" fail="0" id="s1" name="checkChart">checkChart</stat>
</suite>
</statistics>
<errors>
</errors>
</robot>
